ROP Table,Padding,TRAPOP,ROP,IROP,OPSZ,OPSZOVR,OPSZOVRS,OPSZS,OPERANDS,DIR,REGMUX,RSRCMUX,USEREG,USEMODRM,USEIMM,SEXTIMM,SEGOVRDIS,SEGMUX,MOVOP,RSTACK,WSTACK,CMPSMUX,CMPSR,ALTMUX0,ALTMUX1,LDTEMP,ALUAMUX,ALUBMUX,ALUMUX,FLAGMUX,ALUTOUTMUX,BROP,BRCOND,BRTYPE,DISABLECF0,DISABLEZF0,DISABLEZF1
0x00,00000,0,1,000000,00,00,0,00,000,0,0,000,0,0,0,0,0,000,0,0,0,0,0,00,0,0,0,0,0000,000,00,0,00,00,0,0,0
0x01,00000,0,1,100100,10,01,0,10,000,0,0,000,0,1,0,0,1,000,0,0,1,0,0,00,0,0,0,0,0000,000,11,0,00,00,0,0,0
0x02,00000,0,0,000000,10,01,0,10,000,1,0,000,0,1,0,0,0,000,0,0,0,0,0,00,0,0,0,0,0000,000,00,1,00,10,0,1,1
0x03,00000,0,1,001000,10,01,0,10,000,0,0,000,0,1,0,0,0,000,0,0,0,0,0,00,0,1,0,0,0000,000,00,0,00,00,0,1,1
0x04,00000,0,1,000110,10,01,0,10,000,0,0,000,1,1,0,0,0,000,0,0,0,0,0,00,0,0,0,0,0111,000,00,0,00,00,0,0,0
0x05,00000,0,0,000000,10,01,0,10,000,0,0,000,0,0,1,0,0,000,0,0,0,0,0,11,0,0,0,0,0000,000,00,1,01,01,0,0,0
0x06,00000,0,0,000000,10,01,0,10,101,1,0,000,0,0,0,0,0,000,0,0,0,0,0,00,1,0,1,1,1000,000,00,0,00,00,0,0,0
0x07,00000,0,0,000000,10,01,0,10,000,0,0,000,0,0,1,0,0,000,0,0,0,0,0,11,0,0,0,0,0000,000,00,1,10,01,0,0,0
0x08,00000,0,1,001001,10,01,0,10,000,0,0,000,0,0,0,0,1,000,0,0,1,0,0,00,1,0,0,1,1000,000,00,0,00,00,0,0,0
0x09,00000,0,0,000000,10,01,1,10,101,1,0,010,1,0,0,0,0,000,0,0,0,0,0,00,0,0,0,0,0110,000,00,0,00,00,0,0,0
0x0A,00000,0,1,001011,10,10,0,10,000,0,0,000,0,0,0,0,1,000,0,0,1,0,0,00,1,0,0,1,1000,000,00,0,00,00,0,0,0
0x0B,00000,0,0,000000,10,10,1,10,101,1,0,010,1,0,0,0,0,000,0,0,0,0,0,00,0,0,0,0,0110,000,00,0,00,00,0,0,0
0x0C,00000,0,1,001110,10,01,0,10,101,1,1,000,0,0,0,0,0,000,0,0,0,0,0,00,1,0,0,1,1000,000,00,0,00,00,0,0,0
0x0D,00000,0,1,001110,10,01,0,10,110,0,0,000,0,1,0,0,0,000,0,0,0,0,0,00,1,0,0,1,1000,000,00,0,00,00,0,0,0
0x0E,00000,0,0,000000,10,01,1,10,101,1,0,010,1,0,0,0,0,000,0,0,0,0,0,00,0,0,0,0,0101,000,00,0,00,00,0,0,0
0x0F,00000,0,0,000000,10,10,0,10,000,0,0,000,0,0,1,0,0,000,0,0,0,0,0,11,0,0,0,0,0000,000,10,1,00,11,0,0,0
0x10,00000,0,1,010100,10,10,0,10,111,0,0,000,0,0,0,0,0,000,0,0,0,0,0,00,1,0,0,1,1000,000,00,0,00,00,0,0,0
0x11,00000,0,1,010100,10,10,0,10,111,0,0,000,0,0,0,0,0,010,0,0,0,0,0,00,1,0,0,1,1000,000,00,0,00,00,0,0,0
0x12,00000,0,1,010011,00,00,0,10,000,0,0,000,1,1,0,0,0,000,0,0,0,0,0,00,0,0,0,0,0111,000,00,0,00,00,0,0,0
0x13,00000,0,0,000000,00,00,0,10,101,1,0,000,0,0,0,0,0,000,0,0,0,0,0,00,1,0,1,1,1000,000,00,0,00,00,0,0,0
0x14,00000,0,0,000000,10,10,1,10,101,1,0,010,1,0,0,0,0,000,0,0,0,0,0,00,0,0,0,0,0101,000,00,0,00,00,0,0,0
0x15,00000,0,1,011100,10,01,0,10,011,1,0,001,1,0,0,0,0,000,0,0,0,0,0,00,0,0,0,0,0111,000,00,0,00,00,0,0,0
0x16,00000,0,1,010111,10,10,1,10,101,1,0,010,1,0,0,0,0,000,0,0,0,0,0,00,0,0,0,0,0110,000,00,0,00,00,0,0,0
0x17,00000,0,1,011000,10,10,1,10,000,0,0,000,0,0,0,0,0,000,0,0,1,0,0,00,0,0,0,0,0000,000,10,0,00,00,0,0,0
0x18,00000,0,1,011001,10,10,1,10,101,1,0,010,1,0,0,0,0,000,0,0,0,0,0,00,0,0,0,0,0110,000,00,0,00,00,0,0,0
0x19,00000,0,1,011010,10,10,1,10,000,0,0,000,0,0,0,0,0,000,0,0,1,0,0,00,0,0,0,0,0000,000,11,0,00,00,0,0,0
0x1A,00000,0,1,011011,10,10,1,10,101,1,0,010,1,0,0,0,0,000,0,0,0,0,0,00,0,0,0,0,0110,000,00,0,00,00,0,0,0
0x1B,00000,1,0,000000,11,11,1,11,000,0,0,000,0,0,0,0,0,000,0,0,0,0,0,00,0,0,0,0,0000,000,00,1,00,11,0,0,0
0x1C,00000,0,0,000000,10,01,0,10,101,1,1,000,0,0,0,0,0,000,0,0,0,0,0,00,1,0,1,1,1000,000,00,0,00,00,0,0,0
0x1D,00000,0,1,011110,10,10,1,10,101,1,0,010,1,0,0,0,0,000,0,0,0,0,0,00,0,0,0,0,0101,000,00,0,00,00,0,0,0
0x1E,00000,0,1,011111,01,01,1,10,101,1,0,010,1,0,1,0,0,000,0,0,0,0,0,00,0,0,0,1,0000,000,00,0,00,00,0,0,0
0x1F,00000,0,0,000000,10,01,0,10,000,0,0,000,0,0,0,0,0,000,0,0,0,0,0,00,1,0,0,0,0000,000,00,1,11,10,0,0,0
0x20,00000,0,1,001010,10,10,0,10,000,0,0,000,0,0,0,0,0,100,0,0,0,0,0,01,0,1,0,0,0000,000,00,0,00,00,0,1,1
0x21,00000,0,1,010100,10,10,0,10,111,0,0,000,0,0,0,0,1,100,0,1,0,0,0,00,0,0,0,0,1000,000,00,0,00,00,0,0,0
0x22,00000,0,1,100011,10,10,1,10,101,1,0,010,1,0,0,0,0,000,0,0,0,0,0,00,0,0,0,0,0110,000,00,0,00,00,0,0,0
0x23,00000,0,0,000000,10,01,0,10,000,0,0,000,0,0,1,0,0,000,0,0,0,0,0,11,0,0,0,0,0000,000,00,1,00,01,0,0,0
0x24,00000,0,1,100101,10,10,1,10,101,1,0,010,1,0,0,0,0,000,0,0,0,0,0,00,0,0,0,0,0110,000,00,0,00,00,0,0,0
0x25,00000,0,0,000000,10,01,0,10,000,1,0,000,0,1,0,0,0,000,0,0,0,0,0,00,0,0,0,0,0000,000,00,1,00,10,0,1,1
0x26,00000,0,0,000000,00,00,1,10,101,1,0,101,1,0,0,0,0,000,0,0,0,0,0,00,0,0,0,0,1001,000,00,0,00,00,0,0,0
0x27,00000,0,0,000000,10,10,1,10,101,1,0,101,1,0,0,0,0,000,0,0,0,0,0,00,0,0,0,0,1001,000,00,0,00,00,0,0,0
0x28,00000,0,1,001010,10,10,0,10,000,0,0,000,0,0,0,0,0,101,0,0,0,0,0,01,0,1,0,0,0000,000,00,0,00,00,0,1,1
0x29,00000,0,1,010100,10,10,0,10,111,0,0,000,0,0,0,0,1,101,0,1,0,0,0,00,0,0,0,0,1000,000,00,0,00,00,0,0,0
0x2A,00000,0,1,001111,10,10,1,10,101,1,0,010,1,0,0,0,0,000,0,0,0,0,0,00,0,0,0,0,0110,000,00,0,00,00,0,0,0
0x2B,00000,0,0,000000,10,10,0,10,000,0,0,000,1,1,0,0,0,000,0,0,0,0,0,00,0,0,0,0,1010,011,00,0,00,00,0,0,0
0x2C,00000,0,1,101101,00,00,0,00,000,0,0,000,0,0,0,0,1,000,0,0,0,1,1,00,1,0,1,0,0100,001,00,0,00,00,0,0,0
0x2D,00000,0,1,100110,00,00,1,10,101,1,0,100,1,0,0,0,0,000,0,0,0,0,0,00,0,0,0,0,1001,000,00,0,00,00,0,0,0
0x2E,00000,0,1,101111,10,01,0,10,000,0,0,000,0,0,0,0,1,000,0,0,0,1,1,00,1,0,1,0,0100,001,00,0,00,00,0,0,0
0x2F,00000,0,1,100111,10,10,1,10,101,1,0,100,1,0,0,0,0,000,0,0,0,0,0,00,0,0,0,0,1001,000,00,0,00,00,0,0,0
0x30,00000,0,1,110010,00,00,0,00,000,0,0,001,1,1,0,0,0,000,0,0,0,0,0,00,0,0,0,0,0100,001,00,0,00,00,0,1,1
0x31,00000,0,1,110100,10,01,0,10,000,0,0,001,1,1,0,0,0,000,0,0,0,0,0,00,0,0,0,0,0100,001,00,0,00,00,0,1,1
0x32,00000,0,1,110011,00,00,0,00,110,0,0,000,1,1,0,0,0,000,1,0,0,0,0,00,0,0,0,0,0111,000,00,0,00,00,0,1,0
0x33,00000,0,0,000000,00,00,0,00,011,1,0,001,0,1,0,0,0,000,1,0,0,0,0,00,0,0,0,0,1000,000,00,0,00,00,0,0,1
0x34,00000,0,1,110101,10,01,0,10,110,0,0,000,1,1,0,0,0,000,1,0,0,0,0,00,0,0,0,0,0111,000,00,0,00,00,0,1,0
0x35,00000,0,0,000000,10,01,0,10,011,1,0,001,0,1,0,0,0,000,1,0,0,0,0,00,0,0,0,0,1000,000,00,0,00,00,0,0,1
0x36,00000,0,1,110111,10,10,1,10,101,1,0,010,1,0,0,0,0,000,0,0,0,0,0,00,0,0,0,0,0101,000,00,0,00,00,0,0,0
0x37,00000,0,1,111000,10,10,1,10,111,0,0,000,0,0,0,0,1,001,0,1,0,0,0,00,0,0,0,0,1000,000,00,0,00,00,0,0,0
0x38,00000,0,1,111001,10,10,1,10,101,1,0,010,1,0,0,0,0,000,0,0,0,0,0,00,0,0,0,0,0101,000,00,0,00,00,0,0,0
0x39,00000,0,1,111010,10,10,1,10,000,0,0,000,0,0,0,0,1,000,0,1,0,0,0,00,0,0,0,0,1000,111,00,0,00,00,0,0,0
0x3A,00000,0,1,111101,10,10,1,10,101,1,0,010,1,0,0,0,0,000,0,0,0,0,0,00,0,0,0,0,0101,000,00,0,00,00,0,0,0
0x3B,00000,0,1,111100,10,10,1,10,101,1,0,010,1,0,0,0,0,000,0,0,0,0,0,00,0,0,0,0,0101,000,00,0,00,00,0,0,0
0x3C,00000,0,0,000000,10,01,0,10,000,0,0,000,0,0,0,0,0,000,0,0,0,0,0,00,1,0,0,0,0000,000,00,1,11,10,0,0,0
0x3D,00000,0,0,000000,10,01,0,10,000,0,0,000,0,0,0,0,0,000,0,0,0,0,0,00,1,0,0,0,0000,000,00,1,11,10,0,0,0
0x3E,00000,0,1,111111,10,10,1,10,101,1,0,010,1,0,0,0,0,000,0,0,0,0,0,00,0,0,0,0,0110,000,00,0,00,00,0,0,0
0x3F,00000,0,1,101010,10,10,1,10,000,0,0,000,0,0,0,0,0,000,0,0,1,0,0,00,0,0,0,0,0000,000,11,0,00,00,0,0,0
0x40,,,,,,,,,,,,,,,,,,,,,,,,,,,,,,,,,,,,,
0x41,,,,,,,,,,,,,,,,,,,,,,,,,,,,,,,,,,,,,
0x42,00000,0,0,000000,10,01,0,10,000,1,0,000,0,1,0,0,0,000,1,0,0,0,0,00,0,0,0,0,1000,000,00,0,00,00,1,0,0
0x43,,,,,,,,,,,,,,,,,,,,,,,,,,,,,,,,,,,,,
0x44,,,,,,,,,,,,,,,,,,,,,,,,,,,,,,,,,,,,,
0x45,,,,,,,,,,,,,,,,,,,,,,,,,,,,,,,,,,,,,
0x46,,,,,,,,,,,,,,,,,,,,,,,,,,,,,,,,,,,,,
0x47,,,,,,,,,,,,,,,,,,,,,,,,,,,,,,,,,,,,,
0x48,,,,,,,,,,,,,,,,,,,,,,,,,,,,,,,,,,,,,
0x49,,,,,,,,,,,,,,,,,,,,,,,,,,,,,,,,,,,,,
0x4A,,,,,,,,,,,,,,,,,,,,,,,,,,,,,,,,,,,,,
0x4B,,,,,,,,,,,,,,,,,,,,,,,,,,,,,,,,,,,,,
0x4C,,,,,,,,,,,,,,,,,,,,,,,,,,,,,,,,,,,,,
0x4D,,,,,,,,,,,,,,,,,,,,,,,,,,,,,,,,,,,,,
0x4E,,,,,,,,,,,,,,,,,,,,,,,,,,,,,,,,,,,,,
0x4F,,,,,,,,,,,,,,,,,,,,,,,,,,,,,,,,,,,,,
0x50,,,,,,,,,,,,,,,,,,,,,,,,,,,,,,,,,,,,,
0x51,,,,,,,,,,,,,,,,,,,,,,,,,,,,,,,,,,,,,
0x52,,,,,,,,,,,,,,,,,,,,,,,,,,,,,,,,,,,,,
0x53,,,,,,,,,,,,,,,,,,,,,,,,,,,,,,,,,,,,,
0x54,,,,,,,,,,,,,,,,,,,,,,,,,,,,,,,,,,,,,
0x55,,,,,,,,,,,,,,,,,,,,,,,,,,,,,,,,,,,,,
0x56,,,,,,,,,,,,,,,,,,,,,,,,,,,,,,,,,,,,,
0x57,,,,,,,,,,,,,,,,,,,,,,,,,,,,,,,,,,,,,
0x58,,,,,,,,,,,,,,,,,,,,,,,,,,,,,,,,,,,,,
0x59,,,,,,,,,,,,,,,,,,,,,,,,,,,,,,,,,,,,,
0x5A,,,,,,,,,,,,,,,,,,,,,,,,,,,,,,,,,,,,,
0x5B,,,,,,,,,,,,,,,,,,,,,,,,,,,,,,,,,,,,,
0x5C,,,,,,,,,,,,,,,,,,,,,,,,,,,,,,,,,,,,,
0x5D,,,,,,,,,,,,,,,,,,,,,,,,,,,,,,,,,,,,,
0x5E,,,,,,,,,,,,,,,,,,,,,,,,,,,,,,,,,,,,,
0x5F,,,,,,,,,,,,,,,,,,,,,,,,,,,,,,,,,,,,,
0x60,,,,,,,,,,,,,,,,,,,,,,,,,,,,,,,,,,,,,
0x61,,,,,,,,,,,,,,,,,,,,,,,,,,,,,,,,,,,,,
0x62,,,,,,,,,,,,,,,,,,,,,,,,,,,,,,,,,,,,,
0x63,,,,,,,,,,,,,,,,,,,,,,,,,,,,,,,,,,,,,
0x64,,,,,,,,,,,,,,,,,,,,,,,,,,,,,,,,,,,,,
0x65,,,,,,,,,,,,,,,,,,,,,,,,,,,,,,,,,,,,,
0x66,,,,,,,,,,,,,,,,,,,,,,,,,,,,,,,,,,,,,
0x67,,,,,,,,,,,,,,,,,,,,,,,,,,,,,,,,,,,,,
0x68,00000,0,0,000000,11,11,0,11,000,1,0,000,1,1,0,0,0,000,0,0,0,0,0,00,0,0,0,0,1100,000,00,0,00,00,0,0,0
0x69,,,,,,,,,,,,,,,,,,,,,,,,,,,,,,,,,,,,,
0x6A,,,,,,,,,,,,,,,,,,,,,,,,,,,,,,,,,,,,,
0x6B,,,,,,,,,,,,,,,,,,,,,,,,,,,,,,,,,,,,,
0x6C,,,,,,,,,,,,,,,,,,,,,,,,,,,,,,,,,,,,,
0x6D,,,,,,,,,,,,,,,,,,,,,,,,,,,,,,,,,,,,,
0x6E,,,,,,,,,,,,,,,,,,,,,,,,,,,,,,,,,,,,,
0x6F,00000,0,0,000000,11,11,0,11,101,1,0,000,0,1,0,0,0,000,1,0,0,0,0,00,0,0,0,0,1000,000,00,0,00,00,0,0,0
0x70,,,,,,,,,,,,,,,,,,,,,,,,,,,,,,,,,,,,,
0x71,,,,,,,,,,,,,,,,,,,,,,,,,,,,,,,,,,,,,
0x72,,,,,,,,,,,,,,,,,,,,,,,,,,,,,,,,,,,,,
0x73,,,,,,,,,,,,,,,,,,,,,,,,,,,,,,,,,,,,,
0x74,,,,,,,,,,,,,,,,,,,,,,,,,,,,,,,,,,,,,
0x75,,,,,,,,,,,,,,,,,,,,,,,,,,,,,,,,,,,,,
0x76,,,,,,,,,,,,,,,,,,,,,,,,,,,,,,,,,,,,,
0x77,,,,,,,,,,,,,,,,,,,,,,,,,,,,,,,,,,,,,
0x78,,,,,,,,,,,,,,,,,,,,,,,,,,,,,,,,,,,,,
0x79,,,,,,,,,,,,,,,,,,,,,,,,,,,,,,,,,,,,,
0x7A,,,,,,,,,,,,,,,,,,,,,,,,,,,,,,,,,,,,,
0x7B,,,,,,,,,,,,,,,,,,,,,,,,,,,,,,,,,,,,,
0x7C,,,,,,,,,,,,,,,,,,,,,,,,,,,,,,,,,,,,,
0x7D,,,,,,,,,,,,,,,,,,,,,,,,,,,,,,,,,,,,,
0x7E,00000,0,0,000000,11,11,0,11,000,1,0,000,1,1,0,0,0,000,0,0,0,0,0,00,0,0,0,0,0000,000,00,0,00,00,0,0,0
0x7F,00000,0,0,000000,11,11,0,11,000,0,0,000,1,1,0,0,0,000,1,0,0,0,0,00,0,0,0,0,0111,000,00,0,00,00,0,0,0
